%YAML 1.1
%TAG !u! tag:unity3d.com,2011:
--- !u!1045 &1
EditorBuildSettings:
  m_ObjectHideFlags: 0
  serializedVersion: 2
  m_Scenes:
  - enabled: 1
    path: Assets/Counting-Game/Scenes/MainMenu.unity
    guid: 089a7ce3752a24742a3eb6c2e545fd62
  - enabled: 1
    path: Assets/Counting-Game/Scenes/GameScene.unity
    guid: 2cda990e2423bbf4892e6590ba056729
  m_configObjects: {}
